ThunderBird_Taillight_Testbench/Lab6_Report.sim/sim_1/behav/xsim/FSM_testbench.vcd
$date
   Fri Apr 11 14:47:53 2025
$end
$version
  2019.2
$end
$timescale
  1ps
$end
$scope module Testbench $end
$var reg 1 ! clk $end
$var reg 1 " rst $end
$var reg 1 # left $end
$var reg 1 $ right $end
$var wire 6 % lights [5:0] $end
$scope module uut $end
$var wire 1 & clk $end
$var wire 1 ' rst $end
$var wire 1 ( left $end
$var wire 1 ) right $end
$var wire 6 % lights [5:0] $end
$var reg 3 * state [2:0] $end
$var reg 3 + nextState [2:0] $end
$var wire 1 , div_clk $end
$var parameter 3 - S0 [2:0] $end
$var parameter 3 . R1 [2:0] $end
$var parameter 3 / R2 [2:0] $end
$var parameter 3 0 R3 [2:0] $end
$var parameter 3 1 L1 [2:0] $end
$var parameter 3 2 L2 [2:0] $end
$var parameter 3 3 L3 [2:0] $end
$scope module d $end
$var wire 3 4 state [2:0] $end
$var reg 6 5 lights [5:0] $end
$upscope $end
$upscope $end
$upscope $end
$enddefinitions $end
#0
$dumpvars
0!
1"
0#
0$
b0 %
0&
1'
0(
0)
b0 *
b0 +
0,
b0 -
b1 .
b10 /
b11 0
b100 1
b101 2
b110 3
b0 4
b0 5
$end
#5000
1!
1&
b0 *
1,
#10000
0!
0&
0,
#15000
1!
1&
b0 *
1,
#20000
0!
0"
0&
0'
0,
#25000
1!
1&
b0 *
1,
#30000
0!
0&
0,
#35000
1!
1&
b0 *
1,
#40000
0!
1#
0&
1(
b100 +
0,
#45000
1!
b1 %
1&
b100 *
b101 +
1,
b100 4
b1 5
#50000
0!
0&
0,
#55000
1!
b11 %
1&
b101 *
b110 +
1,
b101 4
b11 5
#60000
0!
0&
0,
#65000
1!
b111 %
1&
b110 *
b0 +
1,
b110 4
b111 5
#70000
0!
0&
0,
#75000
1!
b0 %
1&
b0 *
b100 +
1,
b0 4
b0 5
#80000
0!
0&
0,
#85000
1!
b1 %
1&
b100 *
b101 +
1,
b100 4
b1 5
#90000
0!
0&
0,
#95000
1!
b11 %
1&
b101 *
b110 +
1,
b101 4
b11 5
#100000
0!
0&
0,
#105000
1!
b111 %
1&
b110 *
b0 +
1,
b110 4
b111 5
#110000
0!
0&
0,
#115000
1!
b0 %
1&
b0 *
b100 +
1,
b0 4
b0 5
#120000
0!
0&
0,
#125000
1!
b1 %
1&
b100 *
b101 +
1,
b100 4
b1 5
#130000
0!
0&
0,
#135000
1!
b11 %
1&
b101 *
b110 +
1,
b101 4
b11 5
#140000
0!
0#
0&
0(
b110 +
0,
#145000
1!
b111 %
1&
b110 *
b0 +
1,
b110 4
b111 5
#150000
0!
0&
0,
#155000
1!
b0 %
1&
b0 *
b0 +
1,
b0 4
b0 5
#160000
0!
0&
0,
#165000
1!
1&
b0 *
1,
#170000
0!
0&
0,
#175000
1!
1&
b0 *
1,
#180000
0!
0&
0,
#185000
1!
1&
b0 *
1,
#190000
0!
1$
0&
1)
b1 +
0,
#195000
1!
b1000 %
1&
b1 *
b10 +
1,
b1 4
b1000 5
#200000
0!
0&
0,
#205000
1!
b11000 %
1&
b10 *
b11 +
1,
b10 4
b11000 5
#210000
0!
0&
0,
#215000
1!
b111000 %
1&
b11 *
b0 +
1,
b11 4
b111000 5
#220000
0!
0&
0,
#225000
1!
b0 %
1&
b0 *
b1 +
1,
b0 4
b0 5
#230000
0!
0&
0,
#235000
1!
b1000 %
1&
b1 *
b10 +
1,
b1 4
b1000 5
#240000
0!
0&
0,
#245000
1!
b11000 %
1&
b10 *
b11 +
1,
b10 4
b11000 5
#250000
0!
0&
0,
#255000
1!
b111000 %
1&
b11 *
b0 +
1,
b11 4
b111000 5
#260000
0!
0&
0,
#265000
1!
b0 %
1&
b0 *
b1 +
1,
b0 4
b0 5
#270000
0!
0&
0,
#275000
1!
b1000 %
1&
b1 *
b10 +
1,
b1 4
b1000 5
#280000
0!
0&
0,
#285000
1!
b11000 %
1&
b10 *
b11 +
1,
b10 4
b11000 5
#290000
0!
0$
0&
0)
b11 +
0,
#295000
1!
b111000 %
1&
b11 *
b0 +
1,
b11 4
b111000 5
#300000
0!
0&
0,
#305000
1!
b0 %
1&
b0 *
b0 +
1,
b0 4
b0 5
#310000
0!
0&
0,
#315000
1!
1&
b0 *
1,
#320000
0!
0&
0,
#325000
1!
1&
b0 *
1,
#330000
0!
0&
0,
#335000
1!
1&
b0 *
1,
#340000
0!
0&
0,
#345000
1!
1&
b0 *
1,
#350000
0!
0&
0,
#355000
1!
1&
b0 *
1,
#360000
0!
0&
0,
#365000
1!
1&
b0 *
1,
#370000
0!
0&
0,
#375000
1!
1&
b0 *
1,
#380000
0!
0&
0,
#385000
1!
1&
b0 *
1,
#390000
0!
0&
0,
#395000
1!
1&
b0 *
1,
#400000
0!
0&
0,
#405000
1!
1&
b0 *
1,
#410000
0!
0&
0,
#415000
1!
1&
b0 *
1,
#420000
0!
0&
0,
#425000
1!
1&
b0 *
1,
#430000
0!
0&
0,
#435000
1!
1&
b0 *
1,
#440000
0!
0&
0,
#445000
1!
1&
b0 *
1,
#450000
0!
0&
0,
#455000
1!
1&
b0 *
1,
#460000
0!
0&
0,
#465000
1!
1&
b0 *
1,
#470000
0!
0&
0,
#475000
1!
1&
b0 *
1,
#480000
0!
0&
0,
#485000
1!
1&
b0 *
1,
#490000
0!
0&
0,
#495000
1!
1&
b0 *
1,
#500000
0!
0&
0,
#505000
1!
1&
b0 *
1,
#510000
0!
0&
0,
#515000
1!
1&
b0 *
1,
#520000
0!
0&
0,
#525000
1!
1&
b0 *
1,
#530000
0!
0&
0,
#535000
1!
1&
b0 *
1,
#540000
0!
0&
0,
#545000
1!
1&
b0 *
1,
#550000
0!
0&
0,
#555000
1!
1&
b0 *
1,
#560000
0!
0&
0,
#565000
1!
1&
b0 *
1,
#570000
0!
0&
0,
#575000
1!
1&
b0 *
1,
#580000
0!
0&
0,
#585000
1!
1&
b0 *
1,
#590000
0!
0&
0,
#595000
1!
1&
b0 *
1,
#600000
0!
0&
0,
#605000
1!
1&
b0 *
1,
#610000
0!
0&
0,
#615000
1!
1&
b0 *
1,
#620000
0!
0&
0,
#625000
1!
1&
b0 *
1,
#630000
0!
0&
0,
#635000
1!
1&
b0 *
1,
#640000
0!
0&
0,
#645000
1!
1&
b0 *
1,
#650000
0!
0&
0,
#655000
1!
1&
b0 *
1,
#660000
0!
0&
0,
#665000
1!
1&
b0 *
1,
#670000
0!
0&
0,
#675000
1!
1&
b0 *
1,
#680000
0!
0&
0,
#685000
1!
1&
b0 *
1,
#690000
0!
0&
0,
#695000
1!
1&
b0 *
1,
#700000
0!
0&
0,
#705000
1!
1&
b0 *
1,
#710000
0!
0&
0,
#715000
1!
1&
b0 *
1,
#720000
0!
0&
0,
#725000
1!
1&
b0 *
1,
#730000
0!
0&
0,
#735000
1!
1&
b0 *
1,
#740000
0!
0&
0,
#745000
1!
1&
b0 *
1,
#750000
0!
0&
0,
#755000
1!
1&
b0 *
1,
#760000
0!
0&
0,
#765000
1!
1&
b0 *
1,
#770000
0!
0&
0,
#775000
1!
1&
b0 *
1,
#780000
0!
0&
0,
#785000
1!
1&
b0 *
1,
#790000
0!
0&
0,
#795000
1!
1&
b0 *
1,
#800000
0!
0&
0,
#805000
1!
1&
b0 *
1,
#810000
0!
0&
0,
#815000
1!
1&
b0 *
1,
#820000
0!
0&
0,
#825000
1!
1&
b0 *
1,
#830000
0!
0&
0,
#835000
1!
1&
b0 *
1,
